Version:	1.3.0
Date:		2010-10-29

Updated structure of source codes


Version:	1.2.0
Date:		2010-05-18

Added support for chat


Version:	1.1.1
Date:		2010-04-26

Updated so that the result dialog will not be shown if the opponent has disconnected before the game starts


Version:	1.1.0
Date:		2010-04-02

Changed to use options dialog


Version:	1.0.0
Date:		2010-01-28

Initial Release


